digraph G {
node0 [shape="box" color="steelblue" style="filled" label="VFXValue`1 Float2 ((1.0, 1.0))
Count_a
Count_a"]
node1 [shape="box" color="steelblue" style="filled" label="VFXValue`1 Float2 ((0.0, 0.0))
Delay_a
Delay_a
Delay_a
Delay_a"]
node2 [shape="box" color="steelblue" style="filled" label="VFXValue`1 Float2 ((2.0, 2.0))
Count_a"]
node3 [shape="box" color="steelblue" style="filled" label="VFXValue`1 Float2 ((20.0, 20.0))
Count_a"]
node4 [shape="box" color="steelblue" style="filled" label="VFXValue`1 Float3 ((0.0, 1.0, 0.0))
bounds_center
bounds_center
bounds_center
bounds_center"]
node5 [shape="box" color="steelblue" style="filled" label="VFXValue`1 Float3 ((2.0, 3.0, 2.0))
bounds_size
bounds_size
bounds_size
bounds_size"]
node6 [shape="box" color="steelblue" style="filled" label="VFXValue`1 Float (0,1)
A_a
ArcSphere_sphere_radius_a
A_b
stickDistance_a
A_b"]
node7 [shape="box" color="steelblue" style="filled" label="VFXValue`1 Float (0,2)
B_a
Lifetime_a"]
node8 [shape="box" color="cyan" style="filled" label="VFXBuiltInExpression Float (DeltaTime)
deltaTime_a
deltaTime_a
deltaTime_a
deltaTime_b
deltaTime_c
deltaTime_a"]
node9 [shape="box" color="steelblue" style="filled" label="VFXValue`1 Float (4)
Size_b
Size_b"]
node10 [shape="box" color="cyan" style="filled" label="VFXExpressionBakeCurve Float4
Size_c"]
node11 [shape="box" color="lightslategray" style="filled" label="VFXValue`1 Curve (UnityEngine.AnimationCurve)"]
node12 [shape="box" color="cyan" style="filled" label="VFXExpressionCombine Float3
Color_d
Color_e"]
node13 [shape="box" label="VFXExpressionExtractComponent Float"]
node14 [shape="box" label="VFXValue`1 Float4 ((0.0, 4.6, 5.7, 0.4))"]
node15 [shape="box" label="VFXExpressionExtractComponent Float"]
node16 [shape="box" label="VFXExpressionExtractComponent Float"]
node17 [shape="box" color="cyan" style="filled" label="VFXExpressionBakeGradient Float
Color_e"]
node18 [shape="box" color="lightslategray" style="filled" label="VFXValue`1 ColorGradient (UnityEngine.Gradient)"]
node19 [shape="box" color="steelblue" style="filled" label="VFXValue`1 Float (2)
invSoftParticlesFadeDistance
invSoftParticlesFadeDistance
invSoftParticlesFadeDistance"]
node20 [shape="box" color="cyan" style="filled" label="VFXTexture2DValue Texture2D (860)
mainTexture"]
node21 [shape="box" color="orange" style="filled" label="VFXExpressionCombine Float3
Angle_b"]
node22 [shape="box" color="lightslategray" style="filled" label="VFXValue`1 Float (0)"]
node23 [shape="box" color="yellow" style="filled" label="VFXExpressionBranch Float"]
node24 [shape="box" color="yellow" style="filled" label="VFXExpressionCondition Boolean"]
node25 [shape="box" color="yellow" style="filled" label="VFXAttributeExpression Uint32 (spawnIndex)"]
node26 [shape="box" color="lightslategray" style="filled" label="VFXValue`1 Uint32 (0)"]
node27 [shape="box" color="lightslategray" style="filled" label="VFXValue`1 Float (45)"]
node28 [shape="box" color="lightslategray" style="filled" label="VFXValue`1 Float (135)"]
node29 [shape="box" color="steelblue" style="filled" label="VFXValue`1 Float3 ((0.1, 1.0, 1.0))
Scale_c"]
node30 [shape="box" color="cyan" style="filled" label="VFXExpressionBakeCurve Float4
Size_d"]
node31 [shape="box" color="lightslategray" style="filled" label="VFXValue`1 Curve (UnityEngine.AnimationCurve)"]
node32 [shape="box" color="cyan" style="filled" label="VFXExpressionBakeGradient Float
Color_f"]
node33 [shape="box" color="lightslategray" style="filled" label="VFXValue`1 ColorGradient (UnityEngine.Gradient)"]
node34 [shape="box" color="cyan" style="filled" label="VFXTexture2DValue Texture2D (860)
mainTexture"]
node35 [shape="box" color="steelblue" style="filled" label="VFXValue`1 Float3 ((0.0, 0.0, 0.0))
ArcSphere_sphere_center_a
Sphere_center_a
Color_b"]
node36 [shape="box" color="steelblue" style="filled" label="VFXValue`1 Float (6,283185)
ArcSphere_arc_a"]
node37 [shape="box" color="steelblue" style="filled" label="VFXValue`1 Float (1)
volumeFactor_a
Sphere_radius_a
B_b
Size_a"]
node38 [shape="box" color="steelblue" style="filled" label="VFXValue`1 Float (0,4)
B_b"]
node39 [shape="box" color="steelblue" style="filled" label="VFXValue`1 Float (5)
attractionSpeed_a"]
node40 [shape="box" color="steelblue" style="filled" label="VFXValue`1 Float (20)
attractionForce_a"]
node41 [shape="box" color="steelblue" style="filled" label="VFXValue`1 Float (50)
stickForce_a"]
node42 [shape="box" color="steelblue" style="filled" label="VFXValue`1 Float3 ((0.2, 1.0, 1.0))
Scale_c"]
node43 [shape="box" color="cyan" style="filled" label="VFXExpressionBakeCurve Float4
Size_d"]
node44 [shape="box" color="lightslategray" style="filled" label="VFXValue`1 Curve (UnityEngine.AnimationCurve)"]
node45 [shape="box" color="cyan" style="filled" label="VFXExpressionCombine Float3
Color_e"]
node46 [shape="box" label="VFXExpressionExtractComponent Float"]
node47 [shape="box" label="VFXValue`1 Float4 ((0.2, 1.5, 3.6, 0.4))"]
node48 [shape="box" label="VFXExpressionExtractComponent Float"]
node49 [shape="box" label="VFXExpressionExtractComponent Float"]
node50 [shape="box" color="cyan" style="filled" label="VFXExpressionBakeGradient Float
Color_f"]
node51 [shape="box" color="lightslategray" style="filled" label="VFXValue`1 ColorGradient (UnityEngine.Gradient)"]
node52 [shape="box" color="cyan" style="filled" label="VFXTexture2DValue Texture2D (860)
mainTexture"]
node53 [shape="box" color="steelblue" style="filled" label="VFXValue`1 Float (3)
Lifetime_a"]
node54 [shape="box" color="steelblue" style="filled" label="VFXValue`1 Float3 ((-90.0, 0.0, 0.0))
Angle_b"]
node55 [shape="box" color="cyan" style="filled" label="VFXExpressionBakeGradient Float
Color_c"]
node56 [shape="box" color="lightslategray" style="filled" label="VFXValue`1 ColorGradient (UnityEngine.Gradient)"]
node57 [shape="box" color="cyan" style="filled" label="VFXTexture2DValue Texture2D (860)
mainTexture"]
node11 -> node10 
node13 -> node12 [headlabel="0"]
node15 -> node12 [headlabel="1"]
node16 -> node12 [headlabel="2"]
node14 -> node13 
node14 -> node15 
node14 -> node16 
node18 -> node17 
node22 -> node21 [headlabel="0"]
node22 -> node21 [headlabel="1"]
node23 -> node21 [headlabel="2"]
node24 -> node23 [headlabel="0"]
node27 -> node23 [headlabel="1"]
node28 -> node23 [headlabel="2"]
node25 -> node24 [headlabel="0"]
node26 -> node24 [headlabel="1"]
node31 -> node30 
node33 -> node32 
node44 -> node43 
node46 -> node45 [headlabel="0"]
node48 -> node45 [headlabel="1"]
node49 -> node45 [headlabel="2"]
node47 -> node46 
node47 -> node48 
node47 -> node49 
node51 -> node50 
node56 -> node55 
}
